…
    ## using cached file: C:\Users\yaoya\AppData\Local\Cache/R/noaa_ghcnd/USS0023B17S.dly

    ## date created (size, mb): 2020-10-08 22:38:05 (0.008)

    ## file min/max dates: Inf / -Inf

    ## Warning in rnoaa::meteo_pull_monitors(c("USW00094728", "USC00519397", "USS0023B17S"), : The following stations could not be pulled from the GHCN ftp:
    ##  USC00519397, USS0023B17S 
    ## Any other monitors were successfully pulled from GHCN.

``` r
weather_df
```

    ## # A tibble: 365 x 6
    ##    name           id          date        prcp  tmax  tmin
    ##    <chr>          <chr>       <date>     <dbl> <dbl> <dbl>
    ##  1 CentralPark_NY USW00094728 2017-01-01     0   8.9   4.4
    ##  2 CentralPark_NY USW00094728 2017-01-02    53   5     2.8
    ##  3 CentralPark_NY USW00094728 2017-01-03   147   6.1   3.9
    ##  4 CentralPark_NY USW00094728 2017-01-04     0  11.1   1.1
    ##  5 CentralPark_NY USW00094728 2017-01-05     0   1.1  -2.7
    ##  6 CentralPark_NY USW00094728 2017-01-06    13   0.6  -3.8
    ##  7 CentralPark_NY USW00094728 2017-01-07    81  -3.2  -6.6
    ##  8 CentralPark_NY USW00094728 2017-01-08     0  -3.8  -8.8
    ##  9 CentralPark_NY USW00094728 2017-01-09     0  -4.9  -9.9
    ## 10 CentralPark_NY USW00094728 2017-01-10     0   7.8  -6  
    ## # ... with 355 more rows
…
